,state
1,Arkansas
2,California
3,Connecticut
4,Delaware
5,Florida
6,Georgia
7,Illinois
8,Indiana
9,Kentucky
10,Louisiana
11,Maine
12,Massachusetts
13,Michigan
14,Minnesota
15,Mississippi
16,Missouri
17,Nebraska
18,Nevada
19,New Hampshire
20,New Jersey
21,New Mexico
22,New York
23,North Carolina
24,North Dakota
25,Oklahoma
26,Oregon
27,Pennsylvania
28,Rhode Island
29,South Carolina
30,South Dakota
31,Tennessee
32,Utah
33,Vermont
34,Virginia
35,Washington
36,West Virginia
37,Wisconsin
38,Wyoming
